<?xml version="1.0" encoding="UTF-8"?>
<svg width="24" height="24" version="1.1" viewBox="0 0 24 24" xmlns="http://www.w3.org/2000/svg" xmlns:cc="http://creativecommons.org/ns#" xmlns:dc="http://purl.org/dc/elements/1.1/" xmlns:rdf="http://www.w3.org/1999/02/22-rdf-syntax-ns#">
 <metadata>
  <rdf:RDF>
   <cc:Work rdf:about="">
    <dc:format>image/svg+xml</dc:format>
    <dc:type rdf:resource="http://purl.org/dc/dcmitype/StillImage"/>
    <dc:title/>
   </cc:Work>
  </rdf:RDF>
 </metadata>
 <g transform="matrix(1.0647 0 0 1.0659 -125.41 -50.51)">
  <rect x="117.82" y="47.421" width="22.476" height="22.476" fill-opacity="0"/>
  <g>
   <g fill-rule="evenodd">
    <path d="m129.22 67.476s-4.0369 2.8204-7.9962-1.0088c-3.6828-3.5617-0.74655-7.5889-0.74655-7.5889s-1.034 3.5409 1.8475 6.4501c3.5648 3.5991 6.8952 2.1476 6.8952 2.1476z" fill="#ff8f23"/>
    <path d="m138.09 58.411s2.718-4.1065-1.2094-7.9683c-3.6531-3.5921-7.6052-0.55559-7.6052-0.55559s3.5137-1.1227 6.4945 1.6848c3.6875 3.4733 2.3202 6.839 2.3202 6.839z" fill="#ff8f23"/>
    <path d="m138.94 57.775s1.744 4.2613-1.8945 8.2036c-3.3844 3.667-8.6028 2.4398-8.6028 2.4398s4.4187-0.86611 7.2008-3.7248c3.4419-3.5366 3.2965-6.9187 3.2965-6.9187z" fill="#4fbad5"/>
    <path d="m129.73 48.822s-4.2798-1.5294-8.1294 2.2071c-3.5808 3.4755-2.2229 8.6614-2.2229 8.6614s0.75479-4.439 3.5426-7.2922c3.449-3.5297 6.8096-3.5763 6.8096-3.5763z" fill="#4fbad5"/>
   </g>
   <rect x="124.84" y="55.392" width="2.1254" height="6.376" fill="#e23838" stroke-width=".01472"/>
   <rect transform="rotate(90)" x="57.523" y="-129.07" width="2.1254" height="6.376" fill="#e23838" stroke-width=".01472"/>
   <circle transform="rotate(269.82)" cx="-66.058" cy="122.07" r="2.5143" fill="#ff8f23"/>
   <circle transform="rotate(269.82)" cx="-51.734" cy="135.8" r="2.5143" fill="#ff8f23"/>
   <circle transform="rotate(269.82)" cx="-66.012" cy="135.7" r="2.5143" fill="#4fbad5"/>
   <circle transform="rotate(269.82)" cx="-52.294" cy="122.16" r="2.5143" fill="#4fbad5"/>
   <ellipse transform="scale(-1,1)" cx="-134.13" cy="56.629" rx="1.2242" ry="1.2656" fill="#e23838" stroke-width=".01472"/>
   <ellipse transform="scale(-1,1)" cx="-132.56" cy="60.214" rx="1.2242" ry="1.2656" fill="#e23838" stroke-width=".01472"/>
  </g>
 </g>
</svg>
